%!PS-Adobe-3.0 EPSF-3.0
%%Title: /home/danb/teaching/UG/MSOA/DP/lectures_all/figures/replacement_example_2_state_2.fig
%%Creator: fig2dev Version 3.2 Patchlevel 5d
%%CreationDate: Sun Oct 16 15:44:02 2016
%%For: danb@localhost.localdomain (Daniel Black)
%%BoundingBox: 0 0 241 412
%Magnification: 1.0000
%%EndComments
%%BeginProlog
/$F2psDict 200 dict def
$F2psDict begin
$F2psDict /mtrx matrix put
/col-1 {0 setgray} bind def
/col0 {0.000 0.000 0.000 srgb} bind def
/col1 {0.000 0.000 1.000 srgb} bind def
/col2 {0.000 1.000 0.000 srgb} bind def
/col3 {0.000 1.000 1.000 srgb} bind def
/col4 {1.000 0.000 0.000 srgb} bind def
/col5 {1.000 0.000 1.000 srgb} bind def
/col6 {1.000 1.000 0.000 srgb} bind def
/col7 {1.000 1.000 1.000 srgb} bind def
/col8 {0.000 0.000 0.560 srgb} bind def
/col9 {0.000 0.000 0.690 srgb} bind def
/col10 {0.000 0.000 0.820 srgb} bind def
/col11 {0.530 0.810 1.000 srgb} bind def
/col12 {0.000 0.560 0.000 srgb} bind def
/col13 {0.000 0.690 0.000 srgb} bind def
/col14 {0.000 0.820 0.000 srgb} bind def
/col15 {0.000 0.560 0.560 srgb} bind def
/col16 {0.000 0.690 0.690 srgb} bind def
/col17 {0.000 0.820 0.820 srgb} bind def
/col18 {0.560 0.000 0.000 srgb} bind def
/col19 {0.690 0.000 0.000 srgb} bind def
/col20 {0.820 0.000 0.000 srgb} bind def
/col21 {0.560 0.000 0.560 srgb} bind def
/col22 {0.690 0.000 0.690 srgb} bind def
/col23 {0.820 0.000 0.820 srgb} bind def
/col24 {0.500 0.190 0.000 srgb} bind def
/col25 {0.630 0.250 0.000 srgb} bind def
/col26 {0.750 0.380 0.000 srgb} bind def
/col27 {1.000 0.500 0.500 srgb} bind def
/col28 {1.000 0.630 0.630 srgb} bind def
/col29 {1.000 0.750 0.750 srgb} bind def
/col30 {1.000 0.880 0.880 srgb} bind def
/col31 {1.000 0.840 0.000 srgb} bind def

end

/cp {closepath} bind def
/ef {eofill} bind def
/gr {grestore} bind def
/gs {gsave} bind def
/sa {save} bind def
/rs {restore} bind def
/l {lineto} bind def
/m {moveto} bind def
/rm {rmoveto} bind def
/n {newpath} bind def
/s {stroke} bind def
/sh {show} bind def
/slc {setlinecap} bind def
/slj {setlinejoin} bind def
/slw {setlinewidth} bind def
/srgb {setrgbcolor} bind def
/rot {rotate} bind def
/sc {scale} bind def
/sd {setdash} bind def
/ff {findfont} bind def
/sf {setfont} bind def
/scf {scalefont} bind def
/sw {stringwidth} bind def
/tr {translate} bind def
/tnt {dup dup currentrgbcolor
  4 -2 roll dup 1 exch sub 3 -1 roll mul add
  4 -2 roll dup 1 exch sub 3 -1 roll mul add
  4 -2 roll dup 1 exch sub 3 -1 roll mul add srgb}
  bind def
/shd {dup dup currentrgbcolor 4 -2 roll mul 4 -2 roll mul
  4 -2 roll mul srgb} bind def
/reencdict 12 dict def /ReEncode { reencdict begin
/newcodesandnames exch def /newfontname exch def /basefontname exch def
/basefontdict basefontname findfont def /newfont basefontdict maxlength dict def
basefontdict { exch dup /FID ne { dup /Encoding eq
{ exch dup length array copy newfont 3 1 roll put }
{ exch newfont 3 1 roll put } ifelse } { pop pop } ifelse } forall
newfont /FontName newfontname put newcodesandnames aload pop
128 1 255 { newfont /Encoding get exch /.notdef put } for
newcodesandnames length 2 idiv { newfont /Encoding get 3 1 roll put } repeat
newfontname newfont definefont pop end } def
/isovec [
8#055 /minus 8#200 /grave 8#201 /acute 8#202 /circumflex 8#203 /tilde
8#204 /macron 8#205 /breve 8#206 /dotaccent 8#207 /dieresis
8#210 /ring 8#211 /cedilla 8#212 /hungarumlaut 8#213 /ogonek 8#214 /caron
8#220 /dotlessi 8#230 /oe 8#231 /OE
8#240 /space 8#241 /exclamdown 8#242 /cent 8#243 /sterling
8#244 /currency 8#245 /yen 8#246 /brokenbar 8#247 /section 8#250 /dieresis
8#251 /copyright 8#252 /ordfeminine 8#253 /guillemotleft 8#254 /logicalnot
8#255 /hyphen 8#256 /registered 8#257 /macron 8#260 /degree 8#261 /plusminus
8#262 /twosuperior 8#263 /threesuperior 8#264 /acute 8#265 /mu 8#266 /paragraph
8#267 /periodcentered 8#270 /cedilla 8#271 /onesuperior 8#272 /ordmasculine
8#273 /guillemotright 8#274 /onequarter 8#275 /onehalf
8#276 /threequarters 8#277 /questiondown 8#300 /Agrave 8#301 /Aacute
8#302 /Acircumflex 8#303 /Atilde 8#304 /Adieresis 8#305 /Aring
8#306 /AE 8#307 /Ccedilla 8#310 /Egrave 8#311 /Eacute
8#312 /Ecircumflex 8#313 /Edieresis 8#314 /Igrave 8#315 /Iacute
8#316 /Icircumflex 8#317 /Idieresis 8#320 /Eth 8#321 /Ntilde 8#322 /Ograve
8#323 /Oacute 8#324 /Ocircumflex 8#325 /Otilde 8#326 /Odieresis 8#327 /multiply
8#330 /Oslash 8#331 /Ugrave 8#332 /Uacute 8#333 /Ucircumflex
8#334 /Udieresis 8#335 /Yacute 8#336 /Thorn 8#337 /germandbls 8#340 /agrave
8#341 /aacute 8#342 /acircumflex 8#343 /atilde 8#344 /adieresis 8#345 /aring
8#346 /ae 8#347 /ccedilla 8#350 /egrave 8#351 /eacute
8#352 /ecircumflex 8#353 /edieresis 8#354 /igrave 8#355 /iacute
8#356 /icircumflex 8#357 /idieresis 8#360 /eth 8#361 /ntilde 8#362 /ograve
8#363 /oacute 8#364 /ocircumflex 8#365 /otilde 8#366 /odieresis 8#367 /divide
8#370 /oslash 8#371 /ugrave 8#372 /uacute 8#373 /ucircumflex
8#374 /udieresis 8#375 /yacute 8#376 /thorn 8#377 /ydieresis] def
/Times-Roman /Times-Roman-iso isovec ReEncode
/Helvetica /Helvetica-iso isovec ReEncode
 /DrawEllipse {
	/endangle exch def
	/startangle exch def
	/yrad exch def
	/xrad exch def
	/y exch def
	/x exch def
	/savematrix mtrx currentmatrix def
	x y tr xrad yrad sc 0 0 1 startangle endangle arc
	closepath
	savematrix setmatrix
	} def

/$F2psBegin {$F2psDict begin /$F2psEnteredState save def} def
/$F2psEnd {$F2psEnteredState restore end} def

/pageheader {
save
newpath 0 412 moveto 0 0 lineto 241 0 lineto 241 412 lineto closepath clip newpath
-259.0 410.7 translate
1 -1 scale
$F2psBegin
10 setmiterlimit
0 slj 0 slc
 0.06000 0.06000 sc
} bind def
/pagefooter {
$F2psEnd
restore
} bind def
%%EndProlog
pageheader
%
% Fig objects follow
%
% 
% here starts figure with depth 50
% Ellipse
30.000 slw
n 7200 5100 300 300 0 360 DrawEllipse gs col0 s gr

/Times-Roman-iso ff 533.33 scf sf
7080 5250 m
gs 1 -1 sc (1) col0 sh gr
% Ellipse
n 7200 4200 300 300 0 360 DrawEllipse gs col0 s gr

/Times-Roman-iso ff 533.33 scf sf
7100 4360 m
gs 1 -1 sc (2) col0 sh gr
% Ellipse
n 7200 3300 300 300 0 360 DrawEllipse gs col0 s gr

/Times-Roman-iso ff 533.33 scf sf
7090 3460 m
gs 1 -1 sc (3) col0 sh gr
% Ellipse
n 5400 1500 300 300 0 360 DrawEllipse gs col0 s gr

% Ellipse
n 5400 5100 300 300 0 360 DrawEllipse gs col0 s gr

% Ellipse
n 5400 4200 300 300 0 360 DrawEllipse gs col0 s gr

% Ellipse
n 7200 600 300 300 0 360 DrawEllipse gs col0 s gr

% Polyline
0 slj
0 slc
n 5400 6000 m
 5400 6300 l gs col0 s gr 
% Polyline
n 7200 6000 m
 7200 6300 l gs col0 s gr 
% Polyline
n 4350 6000 m
 8250 6000 l gs col0 s gr 
% Polyline
 [120] 0 sd
n 4500 1950 m
 5120 1650 l gs col0 s gr  [] 0 sd
% Polyline
n 5680 1370 m
 6920 750 l gs col4 s gr 
% Polyline
 [120] 0 sd
n 4500 5100 m
 5070 5090 l gs col0 s gr  [] 0 sd
% Polyline
n 5700 5090 m
 6900 5090 l gs col0 s gr 
% Polyline
 [120] 0 sd
n 4500 4650 m
 5140 4350 l gs col0 s gr  [] 0 sd
% Polyline
n 5690 4080 m
 6930 3480 l gs col1 s gr 
% Polyline
n 5700 4320 m
 6940 4900 l gs col1 s gr 
% Polyline
 [120] 0 sd
n 4500 3600 m
 5220 4854 l gs col0 s gr  [] 0 sd
% Polyline
n 5574 1747 m
 7047 4827 l gs col4 s gr 
% Polyline
 [120] 0 sd
n 7482 489 m
 8100 150 l gs col-1 s gr  [] 0 sd
% Polyline
 [120] 0 sd
n 7362 867 m
 8100 2700 l gs col0 s gr  [] 0 sd
% Polyline
 [120] 0 sd
n 7482 3180 m
 8100 2850 l gs col0 s gr  [] 0 sd
% Polyline
 [120] 0 sd
n 7496 4138 m
 8205 3900 l gs col0 s gr  [] 0 sd
% Polyline
 [120] 0 sd
n 7476 4344 m
 8130 4500 l gs col0 s gr  [] 0 sd
% Polyline
 [120] 0 sd
n 7482 5091 m
 8100 5100 l gs col0 s gr  [] 0 sd
% Polyline
 [120] 0 sd
n 7496 3411 m
 8295 3900 l gs col0 s gr  [] 0 sd
% Polyline
 [120] 0 sd
n 7496 5004 m
 8130 4740 l gs col0 s gr  [] 0 sd
% Polyline
n 5670 4990 m
 6960 4380 l gs col0 s gr 
/Times-Roman-iso ff 533.33 scf sf
5290 1650 m
gs 1 -1 sc (5) col0 sh gr
/Times-Roman-iso ff 533.33 scf sf
5310 4350 m
gs 1 -1 sc (2) col0 sh gr
/Times-Roman-iso ff 533.33 scf sf
5290 5250 m
gs 1 -1 sc (1) col0 sh gr
/Times-Roman-iso ff 533.33 scf sf
7070 750 m
gs 1 -1 sc (6) col0 sh gr
/Times-Roman-iso ff 600.00 scf sf
7080 6820 m
gs 1 -1 sc (1) col0 sh gr
/Times-Roman-iso ff 600.00 scf sf
5280 6830 m
gs 1 -1 sc (2) col0 sh gr
/Helvetica-iso ff 333.33 scf sf
5880 990 m
gs 1 -1 sc (100) col4 sh gr
/Helvetica-iso ff 333.33 scf sf
7410 225 m
gs 1 -1 sc (37) col0 sh gr
/Helvetica-iso ff 333.33 scf sf
7395 2955 m
gs 1 -1 sc (24) col0 sh gr
/Helvetica-iso ff 333.33 scf sf
7395 3975 m
gs 1 -1 sc (12) col0 sh gr
/Helvetica-iso ff 333.33 scf sf
7425 4815 m
gs 1 -1 sc (-4) col0 sh gr
/Helvetica-iso ff 333.33 scf sf
6090 2625 m
gs 1 -1 sc (60) col4 sh gr
/Helvetica-iso ff 333.33 scf sf
5835 3795 m
gs 1 -1 sc (20) col1 sh gr
/Helvetica-iso ff 333.33 scf sf
5940 4425 m
gs 1 -1 sc (39) col1 sh gr
/Helvetica-iso ff 333.33 scf sf
5640 4785 m
gs 1 -1 sc (13) col0 sh gr
/Helvetica-iso ff 333.33 scf sf
5835 5415 m
gs 1 -1 sc (28) col0 sh gr
% here ends figure;
pagefooter
showpage
%%Trailer
%EOF
