%!PS-Adobe-3.0 EPSF-3.0
%%Title: replacement_example_2.fig
%%Creator: fig2dev Version 3.2 Patchlevel 5d
%%CreationDate: Mon Nov 18 13:43:27 2013
%%For: danb@localhost.localdomain (Daniel Black)
%%BoundingBox: 0 0 543 450
%Magnification: 1.0000
%%EndComments
%%BeginProlog
/$F2psDict 200 dict def
$F2psDict begin
$F2psDict /mtrx matrix put
/col-1 {0 setgray} bind def
/col0 {0.000 0.000 0.000 srgb} bind def
/col1 {0.000 0.000 1.000 srgb} bind def
/col2 {0.000 1.000 0.000 srgb} bind def
/col3 {0.000 1.000 1.000 srgb} bind def
/col4 {1.000 0.000 0.000 srgb} bind def
/col5 {1.000 0.000 1.000 srgb} bind def
/col6 {1.000 1.000 0.000 srgb} bind def
/col7 {1.000 1.000 1.000 srgb} bind def
/col8 {0.000 0.000 0.560 srgb} bind def
/col9 {0.000 0.000 0.690 srgb} bind def
/col10 {0.000 0.000 0.820 srgb} bind def
/col11 {0.530 0.810 1.000 srgb} bind def
/col12 {0.000 0.560 0.000 srgb} bind def
/col13 {0.000 0.690 0.000 srgb} bind def
/col14 {0.000 0.820 0.000 srgb} bind def
/col15 {0.000 0.560 0.560 srgb} bind def
/col16 {0.000 0.690 0.690 srgb} bind def
/col17 {0.000 0.820 0.820 srgb} bind def
/col18 {0.560 0.000 0.000 srgb} bind def
/col19 {0.690 0.000 0.000 srgb} bind def
/col20 {0.820 0.000 0.000 srgb} bind def
/col21 {0.560 0.000 0.560 srgb} bind def
/col22 {0.690 0.000 0.690 srgb} bind def
/col23 {0.820 0.000 0.820 srgb} bind def
/col24 {0.500 0.190 0.000 srgb} bind def
/col25 {0.630 0.250 0.000 srgb} bind def
/col26 {0.750 0.380 0.000 srgb} bind def
/col27 {1.000 0.500 0.500 srgb} bind def
/col28 {1.000 0.630 0.630 srgb} bind def
/col29 {1.000 0.750 0.750 srgb} bind def
/col30 {1.000 0.880 0.880 srgb} bind def
/col31 {1.000 0.840 0.000 srgb} bind def

end

/cp {closepath} bind def
/ef {eofill} bind def
/gr {grestore} bind def
/gs {gsave} bind def
/sa {save} bind def
/rs {restore} bind def
/l {lineto} bind def
/m {moveto} bind def
/rm {rmoveto} bind def
/n {newpath} bind def
/s {stroke} bind def
/sh {show} bind def
/slc {setlinecap} bind def
/slj {setlinejoin} bind def
/slw {setlinewidth} bind def
/srgb {setrgbcolor} bind def
/rot {rotate} bind def
/sc {scale} bind def
/sd {setdash} bind def
/ff {findfont} bind def
/sf {setfont} bind def
/scf {scalefont} bind def
/sw {stringwidth} bind def
/tr {translate} bind def
/tnt {dup dup currentrgbcolor
  4 -2 roll dup 1 exch sub 3 -1 roll mul add
  4 -2 roll dup 1 exch sub 3 -1 roll mul add
  4 -2 roll dup 1 exch sub 3 -1 roll mul add srgb}
  bind def
/shd {dup dup currentrgbcolor 4 -2 roll mul 4 -2 roll mul
  4 -2 roll mul srgb} bind def
 /DrawEllipse {
	/endangle exch def
	/startangle exch def
	/yrad exch def
	/xrad exch def
	/y exch def
	/x exch def
	/savematrix mtrx currentmatrix def
	x y tr xrad yrad sc 0 0 1 startangle endangle arc
	closepath
	savematrix setmatrix
	} def

/$F2psBegin {$F2psDict begin /$F2psEnteredState save def} def
/$F2psEnd {$F2psEnteredState restore end} def

/pageheader {
save
newpath 0 450 moveto 0 0 lineto 543 0 lineto 543 450 lineto closepath clip newpath
-16.5 411.9 translate
1 -1 scale
$F2psBegin
10 setmiterlimit
0 slj 0 slc
 0.06000 0.06000 sc
} bind def
/pagefooter {
$F2psEnd
restore
} bind def
%%EndProlog
pageheader
%
% Fig objects follow
%
% 
% here starts figure with depth 50
% Ellipse
30.000 slw
n 7200 5100 300 300 0 360 DrawEllipse gs col0 s gr

/Times-Roman ff 533.33 scf sf
7080 5250 m
gs 1 -1 sc (1) col0 sh gr
% Ellipse
n 7200 4200 300 300 0 360 DrawEllipse gs col0 s gr

/Times-Roman ff 533.33 scf sf
7100 4360 m
gs 1 -1 sc (2) col0 sh gr
% Ellipse
n 7200 3300 300 300 0 360 DrawEllipse gs col0 s gr

/Times-Roman ff 533.33 scf sf
7090 3460 m
gs 1 -1 sc (3) col0 sh gr
% Ellipse
n 9000 5100 300 300 0 360 DrawEllipse gs col0 s gr

/Times-Roman ff 533.33 scf sf
8880 5250 m
gs 1 -1 sc (1) col0 sh gr
% Ellipse
n 9000 4200 300 300 0 360 DrawEllipse gs col0 s gr

/Times-Roman ff 533.33 scf sf
8900 4360 m
gs 1 -1 sc (2) col0 sh gr
% Ellipse
n 9000 3300 300 300 0 360 DrawEllipse gs col0 s gr

/Times-Roman ff 533.33 scf sf
8890 3460 m
gs 1 -1 sc (3) col0 sh gr
% Ellipse
n 1800 3300 300 300 0 360 DrawEllipse gs col0 s gr

% Ellipse
n 3600 2400 300 300 0 360 DrawEllipse gs col0 s gr

% Ellipse
n 3600 5100 300 300 0 360 DrawEllipse gs col0 s gr

% Ellipse
n 5400 1500 300 300 0 360 DrawEllipse gs col0 s gr

% Ellipse
n 5400 5100 300 300 0 360 DrawEllipse gs col0 s gr

% Ellipse
n 5400 4200 300 300 0 360 DrawEllipse gs col0 s gr

% Ellipse
n 7200 600 300 300 0 360 DrawEllipse gs col0 s gr

% Ellipse
n 9000 -300 300 300 0 360 DrawEllipse gs col0 s gr

% Ellipse
n 9000 2400 300 300 0 360 DrawEllipse gs col0 s gr

% Polyline
0 slj
0 slc
n 600 600 m
 900 600 l gs col0 s gr 
% Polyline
n 600 1500 m
 900 1500 l gs col0 s gr 
% Polyline
n 600 2400 m
 900 2400 l gs col0 s gr 
% Polyline
n 600 3300 m
 900 3300 l gs col0 s gr 
% Polyline
n 600 4200 m
 900 4200 l gs col0 s gr 
% Polyline
n 600 5100 m
 900 5100 l gs col0 s gr 
% Polyline
n 600 6000 m
 900 6000 l gs col0 s gr 
% Polyline
n 900 600 m
 900 6000 l gs col0 s gr 
% Polyline
n 1800 6000 m
 1800 6300 l gs col0 s gr 
% Polyline
n 3600 6000 m
 3600 6300 l gs col0 s gr 
% Polyline
n 5400 6000 m
 5400 6300 l gs col0 s gr 
% Polyline
n 7200 6000 m
 7200 6300 l gs col0 s gr 
% Polyline
n 9000 6000 m
 9000 6300 l gs col0 s gr 
% Polyline
n 900 6000 m
 9000 6000 l gs col0 s gr 
% Polyline
n 2050 3490 m
 3370 4900 l gs col0 s gr 
% Polyline
n 2040 3160 m
 3320 2520 l gs col0 s gr 
% Polyline
n 3880 2270 m
 5120 1650 l gs col0 s gr 
% Polyline
n 5680 1370 m
 6920 750 l gs col0 s gr 
% Polyline
n 3920 5090 m
 5070 5090 l gs col0 s gr 
% Polyline
n 5700 5090 m
 6900 5090 l gs col0 s gr 
% Polyline
n 3850 4930 m
 5140 4350 l gs col0 s gr 
% Polyline
n 5690 4080 m
 6930 3480 l gs col0 s gr 
% Polyline
n 5670 4990 m
 6960 4380 l gs col0 s gr 
% Polyline
n 5700 4320 m
 6940 4900 l gs col0 s gr 
% Polyline
n 3807 2627 m
 5220 4854 l gs col0 s gr 
% Polyline
n 5574 1747 m
 7047 4827 l gs col0 s gr 
% Polyline
n 7482 489 m
 8762 -131 l gs col0 s gr 
% Polyline
n 7362 867 m
 8809 4880 l gs col0 s gr 
% Polyline
n 7482 3180 m
 8736 2547 l gs col0 s gr 
% Polyline
n 7496 4138 m
 8762 3491 l gs col0 s gr 
% Polyline
n 7496 5004 m
 8742 4358 l gs col0 s gr 
% Polyline
n 7496 3411 m
 8722 4958 l gs col0 s gr 
% Polyline
n 7476 4344 m
 8716 5044 l gs col0 s gr 
% Polyline
n 7482 5091 m
 8702 5091 l gs col0 s gr 
/Times-Roman ff 600.00 scf sf
290 6200 m
gs 1 -1 sc (0) col0 sh gr
/Times-Roman ff 600.00 scf sf
300 5270 m
gs 1 -1 sc (1) col0 sh gr
/Times-Roman ff 600.00 scf sf
310 4400 m
gs 1 -1 sc (2) col0 sh gr
/Times-Roman ff 600.00 scf sf
310 3500 m
gs 1 -1 sc (3) col0 sh gr
/Times-Roman ff 600.00 scf sf
310 2590 m
gs 1 -1 sc (4) col0 sh gr
/Times-Roman ff 600.00 scf sf
300 1680 m
gs 1 -1 sc (5) col0 sh gr
/Times-Roman ff 600.00 scf sf
300 800 m
gs 1 -1 sc (6) col0 sh gr
/Times-Roman ff 533.33 scf sf
1700 3450 m
gs 1 -1 sc (3) col0 sh gr
/Times-Roman ff 533.33 scf sf
3490 5250 m
gs 1 -1 sc (1) col0 sh gr
/Times-Roman ff 533.33 scf sf
3470 2540 m
gs 1 -1 sc (4) col0 sh gr
/Times-Roman ff 533.33 scf sf
5290 1650 m
gs 1 -1 sc (5) col0 sh gr
/Times-Roman ff 533.33 scf sf
5310 4350 m
gs 1 -1 sc (2) col0 sh gr
/Times-Roman ff 533.33 scf sf
5290 5250 m
gs 1 -1 sc (1) col0 sh gr
/Times-Roman ff 533.33 scf sf
7070 750 m
gs 1 -1 sc (6) col0 sh gr
/Times-Roman ff 600.00 scf sf
8870 6850 m
gs 1 -1 sc (0) col0 sh gr
/Times-Roman ff 600.00 scf sf
7080 6820 m
gs 1 -1 sc (1) col0 sh gr
/Times-Roman ff 600.00 scf sf
5280 6830 m
gs 1 -1 sc (2) col0 sh gr
/Times-Roman ff 600.00 scf sf
3470 6830 m
gs 1 -1 sc (3) col0 sh gr
/Times-Roman ff 600.00 scf sf
1650 6830 m
gs 1 -1 sc (4) col0 sh gr
/Times-Roman ff 533.33 scf sf
8890 -140 m
gs 1 -1 sc (7) col0 sh gr
/Times-Roman ff 533.33 scf sf
8890 2560 m
gs 1 -1 sc (4) col0 sh gr
% here ends figure;
pagefooter
showpage
%%Trailer
%EOF
