#FIG 3.2
Landscape
Center
Inches
Letter  
100.00
Single
-2
1200 2
6 6000 1200 6644 4844
1 3 0 3 0 7 50 -1 -1 0.000 1 0.0000 6322 1522 300 300 6322 1522 6622 1522
1 3 0 3 0 7 50 -1 -1 0.000 1 0.0000 6322 3022 300 300 6322 3022 6622 3022
1 3 0 3 0 7 50 -1 -1 0.000 1 0.0000 6322 4522 300 300 6322 4522 6322 4822
4 0 0 50 -1 0 24 0.0000 4 240 180 6239 1643 3\001
4 0 0 50 -1 0 24 0.0000 4 240 180 6233 3150 2\001
4 0 0 50 -1 0 24 0.0000 4 240 180 6232 4649 1\001
-6
6 3000 3900 4200 5100
1 3 0 3 0 7 50 -1 -1 0.000 1 0.0000 3600 4500 300 300 3600 4500 3600 4800
4 0 0 50 -1 0 24 0.0000 4 240 180 3510 4627 1\001
-6
1 3 0 3 0 7 50 -1 -1 0.000 1 0.0000 3600 1500 300 300 3600 1500 3900 1500
1 3 0 3 0 7 50 -1 -1 0.000 1 0.0000 3600 3000 300 300 3600 3000 3900 3000
1 3 0 3 0 7 50 -1 -1 0.000 1 0.0000 9022 3022 300 300 9022 3022 9322 3022
2 1 0 3 4 7 50 -1 -1 0.000 0 0 -1 0 0 2
	 3900 1500 6000 1500
2 1 0 3 4 7 50 -1 -1 0.000 0 0 -1 0 0 2
	 3825 1650 6075 2850
2 1 0 3 1 7 50 -1 -1 0.000 0 0 -1 0 0 2
	 3825 2850 6075 1725
2 1 0 3 1 7 50 -1 -1 0.000 0 0 -1 0 0 2
	 3900 3000 6075 3000
2 1 0 3 1 7 50 -1 -1 0.000 0 0 -1 0 0 2
	 3825 3150 6075 4350
2 1 0 3 0 7 50 -1 -1 0.000 0 0 -1 0 0 2
	 3825 4350 6075 3225
2 1 0 3 0 7 50 -1 -1 0.000 0 0 -1 0 0 2
	 3750 4275 6150 1800
2 1 1 3 0 7 50 -1 -1 8.000 0 0 -1 1 0 2
	1 1 6.00 90.00 120.00
	 6600 1575 8850 2775
2 1 1 3 0 7 50 -1 -1 8.000 0 0 -1 1 0 2
	1 1 6.00 90.00 120.00
	 6600 3000 8700 3000
2 1 1 3 0 7 50 -1 -1 8.000 0 0 -1 1 0 2
	1 1 6.00 90.00 120.00
	 6675 4500 8775 3225
2 1 1 3 0 7 50 -1 -1 8.000 0 0 -1 0 0 2
	 3300 1575 2925 1800
2 1 1 3 0 7 50 -1 -1 8.000 0 0 -1 0 0 2
	 3300 3000 2925 3000
2 1 1 3 0 7 50 -1 -1 8.000 0 0 -1 0 0 2
	 3300 4425 3000 4200
2 1 0 3 0 7 50 -1 -1 0.000 0 0 -1 0 0 2
	 3900 4500 6000 4500
4 0 0 50 -1 0 24 0.0000 4 240 180 3517 1621 3\001
4 0 0 50 -1 0 24 0.0000 4 240 180 3511 3128 2\001
4 0 0 50 -1 0 24 0.0000 4 240 195 8933 3150 F\001
4 0 0 50 -1 0 24 0.0000 4 315 870 3225 5400 Day 1\001
4 0 0 50 -1 0 24 0.0000 4 315 870 5850 5400 Day 2\001
4 0 0 50 -1 4 12 0.0000 0 120 210 6525 4200 60\001
4 0 0 50 -1 4 12 0.0000 0 120 210 6525 2625 20\001
4 0 0 50 -1 4 12 0.0000 0 120 210 6450 1125 40\001
4 0 0 50 -1 4 12 0.0000 0 120 315 4575 1425 100\001
4 0 0 50 -1 4 12 0.0000 0 120 210 4575 1950 40\001
4 0 0 50 -1 4 12 0.0000 0 120 315 4125 2550 110\001
4 0 0 50 -1 4 12 0.0000 0 120 210 4350 2925 80\001
4 0 0 50 -1 4 12 0.0000 0 120 210 4275 3300 20\001
4 0 0 50 -1 4 12 0.0000 0 120 210 3825 3975 80\001
4 0 0 50 -1 4 12 0.0000 0 120 210 4500 4275 70\001
4 0 0 50 -1 4 12 0.0000 0 120 210 4425 4725 60\001
