%!PS-Adobe-3.0 EPSF-3.0
%%Title: state_0.fig
%%Creator: fig2dev Version 3.2 Patchlevel 5d
%%CreationDate: Mon Nov 18 13:43:49 2013
%%For: danb@localhost.localdomain (Daniel Black)
%%BoundingBox: 0 0 329 275
%Magnification: 1.0000
%%EndComments
%%BeginProlog
/$F2psDict 200 dict def
$F2psDict begin
$F2psDict /mtrx matrix put
/col-1 {0 setgray} bind def
/col0 {0.000 0.000 0.000 srgb} bind def
/col1 {0.000 0.000 1.000 srgb} bind def
/col2 {0.000 1.000 0.000 srgb} bind def
/col3 {0.000 1.000 1.000 srgb} bind def
/col4 {1.000 0.000 0.000 srgb} bind def
/col5 {1.000 0.000 1.000 srgb} bind def
/col6 {1.000 1.000 0.000 srgb} bind def
/col7 {1.000 1.000 1.000 srgb} bind def
/col8 {0.000 0.000 0.560 srgb} bind def
/col9 {0.000 0.000 0.690 srgb} bind def
/col10 {0.000 0.000 0.820 srgb} bind def
/col11 {0.530 0.810 1.000 srgb} bind def
/col12 {0.000 0.560 0.000 srgb} bind def
/col13 {0.000 0.690 0.000 srgb} bind def
/col14 {0.000 0.820 0.000 srgb} bind def
/col15 {0.000 0.560 0.560 srgb} bind def
/col16 {0.000 0.690 0.690 srgb} bind def
/col17 {0.000 0.820 0.820 srgb} bind def
/col18 {0.560 0.000 0.000 srgb} bind def
/col19 {0.690 0.000 0.000 srgb} bind def
/col20 {0.820 0.000 0.000 srgb} bind def
/col21 {0.560 0.000 0.560 srgb} bind def
/col22 {0.690 0.000 0.690 srgb} bind def
/col23 {0.820 0.000 0.820 srgb} bind def
/col24 {0.500 0.190 0.000 srgb} bind def
/col25 {0.630 0.250 0.000 srgb} bind def
/col26 {0.750 0.380 0.000 srgb} bind def
/col27 {1.000 0.500 0.500 srgb} bind def
/col28 {1.000 0.630 0.630 srgb} bind def
/col29 {1.000 0.750 0.750 srgb} bind def
/col30 {1.000 0.880 0.880 srgb} bind def
/col31 {1.000 0.840 0.000 srgb} bind def

end

/cp {closepath} bind def
/ef {eofill} bind def
/gr {grestore} bind def
/gs {gsave} bind def
/sa {save} bind def
/rs {restore} bind def
/l {lineto} bind def
/m {moveto} bind def
/rm {rmoveto} bind def
/n {newpath} bind def
/s {stroke} bind def
/sh {show} bind def
/slc {setlinecap} bind def
/slj {setlinejoin} bind def
/slw {setlinewidth} bind def
/srgb {setrgbcolor} bind def
/rot {rotate} bind def
/sc {scale} bind def
/sd {setdash} bind def
/ff {findfont} bind def
/sf {setfont} bind def
/scf {scalefont} bind def
/sw {stringwidth} bind def
/tr {translate} bind def
/tnt {dup dup currentrgbcolor
  4 -2 roll dup 1 exch sub 3 -1 roll mul add
  4 -2 roll dup 1 exch sub 3 -1 roll mul add
  4 -2 roll dup 1 exch sub 3 -1 roll mul add srgb}
  bind def
/shd {dup dup currentrgbcolor 4 -2 roll mul 4 -2 roll mul
  4 -2 roll mul srgb} bind def
 /DrawEllipse {
	/endangle exch def
	/startangle exch def
	/yrad exch def
	/xrad exch def
	/y exch def
	/x exch def
	/savematrix mtrx currentmatrix def
	x y tr xrad yrad sc 0 0 1 startangle endangle arc
	closepath
	savematrix setmatrix
	} def

/$F2psBegin {$F2psDict begin /$F2psEnteredState save def} def
/$F2psEnd {$F2psEnteredState restore end} def

/pageheader {
save
newpath 0 275 moveto 0 0 lineto 329 0 lineto 329 275 lineto closepath clip newpath
-70.6 335.9 translate
1 -1 scale
$F2psBegin
10 setmiterlimit
0 slj 0 slc
 0.06000 0.06000 sc
} bind def
/pagefooter {
$F2psEnd
restore
} bind def
%%EndProlog
pageheader
%
% Fig objects follow
%
% 
% here starts figure with depth 50
% Ellipse
30.000 slw
n 3600 4500 300 300 0 360 DrawEllipse gs col0 s gr

/Times-Roman ff 400.00 scf sf
3510 4627 m
gs 1 -1 sc (1) col0 sh gr
% Ellipse
n 3600 1500 300 300 0 360 DrawEllipse gs col0 s gr

% Ellipse
n 3600 3000 300 300 0 360 DrawEllipse gs col0 s gr

% Ellipse
n 1500 3000 300 300 0 360 DrawEllipse gs col0 s gr

% Ellipse
n 6322 3022 300 300 0 360 DrawEllipse gs col0 s gr

% Polyline
0 slj
0 slc
n 1650 2775 m
 3300 1575 l gs col0 s gr 
% Polyline
n 1800 3000 m
 3300 3000 l gs col0 s gr 
% Polyline
n 1650 3225 m
 3300 4350 l gs col0 s gr 
% Polyline
 [120] 0 sd
gs  clippath
5926 2699 m 6140 2821 l 6185 2743 l 5970 2621 l 5970 2621 l 6053 2720 l 5926 2699 l cp
eoclip
n 3900 1500 m
 6150 2775 l gs col0 s gr gr
 [] 0 sd
% arrowhead
75.000 slw
n 5926 2699 m 6053 2720 l 5970 2621 l 5926 2699 l  cp gs 0.00 setgray ef gr  col0 s
% Polyline
30.000 slw
 [120] 0 sd
gs  clippath
5769 3045 m 6015 3045 l 6015 2955 l 5769 2955 l 5769 2955 l 5889 3000 l 5769 3045 l cp
eoclip
n 3900 3000 m
 6000 3000 l gs col0 s gr gr
 [] 0 sd
% arrowhead
75.000 slw
n 5769 3045 m 5889 3000 l 5769 2955 l 5769 3045 l  cp gs 0.00 setgray ef gr  col0 s
% Polyline
30.000 slw
 [120] 0 sd
gs  clippath
5970 3378 m 6185 3256 l 6140 3178 l 5926 3300 l 5926 3300 l 6053 3280 l 5970 3378 l cp
eoclip
n 3900 4500 m
 6150 3225 l gs col0 s gr gr
 [] 0 sd
% arrowhead
75.000 slw
n 5970 3378 m 6053 3280 l 5926 3300 l 5970 3378 l  cp gs 0.00 setgray ef gr  col0 s
/Times-Roman ff 400.00 scf sf
3517 1621 m
gs 1 -1 sc (3) col0 sh gr
/Times-Roman ff 400.00 scf sf
3511 3128 m
gs 1 -1 sc (2) col0 sh gr
/Times-Roman ff 400.00 scf sf
1410 3127 m
gs 1 -1 sc (0) col0 sh gr
/Times-Roman ff 400.00 scf sf
6233 3150 m
gs 1 -1 sc (F) col0 sh gr
/Times-Roman ff 400.00 scf sf
3000 5475 m
gs 1 -1 sc (Day 1) col0 sh gr
/Times-Roman ff 233.33 scf sf
3825 4200 m
gs 1 -1 sc (90) col0 sh gr
/Times-Roman ff 233.33 scf sf
3825 2700 m
gs 1 -1 sc (80) col0 sh gr
/Times-Roman ff 233.33 scf sf
3750 1200 m
gs 1 -1 sc (60) col0 sh gr
/Times-Roman ff 233.33 scf sf
2025 2325 m
gs 1 -1 sc (80) col0 sh gr
/Times-Roman ff 233.33 scf sf
2175 2925 m
gs 1 -1 sc (70) col0 sh gr
/Times-Roman ff 233.33 scf sf
1875 3825 m
gs 1 -1 sc (60) col0 sh gr
% here ends figure;
pagefooter
showpage
%%Trailer
%EOF
