%!PS-Adobe-3.0 EPSF-3.0
%%Title: state.fig
%%Creator: fig2dev Version 3.2 Patchlevel 5d
%%CreationDate: Mon Nov 18 13:44:27 2013
%%For: danb@localhost.localdomain (Daniel Black)
%%BoundingBox: 0 0 510 257
%Magnification: 1.0000
%%EndComments
%%BeginProlog
/$F2psDict 200 dict def
$F2psDict begin
$F2psDict /mtrx matrix put
/col-1 {0 setgray} bind def
/col0 {0.000 0.000 0.000 srgb} bind def
/col1 {0.000 0.000 1.000 srgb} bind def
/col2 {0.000 1.000 0.000 srgb} bind def
/col3 {0.000 1.000 1.000 srgb} bind def
/col4 {1.000 0.000 0.000 srgb} bind def
/col5 {1.000 0.000 1.000 srgb} bind def
/col6 {1.000 1.000 0.000 srgb} bind def
/col7 {1.000 1.000 1.000 srgb} bind def
/col8 {0.000 0.000 0.560 srgb} bind def
/col9 {0.000 0.000 0.690 srgb} bind def
/col10 {0.000 0.000 0.820 srgb} bind def
/col11 {0.530 0.810 1.000 srgb} bind def
/col12 {0.000 0.560 0.000 srgb} bind def
/col13 {0.000 0.690 0.000 srgb} bind def
/col14 {0.000 0.820 0.000 srgb} bind def
/col15 {0.000 0.560 0.560 srgb} bind def
/col16 {0.000 0.690 0.690 srgb} bind def
/col17 {0.000 0.820 0.820 srgb} bind def
/col18 {0.560 0.000 0.000 srgb} bind def
/col19 {0.690 0.000 0.000 srgb} bind def
/col20 {0.820 0.000 0.000 srgb} bind def
/col21 {0.560 0.000 0.560 srgb} bind def
/col22 {0.690 0.000 0.690 srgb} bind def
/col23 {0.820 0.000 0.820 srgb} bind def
/col24 {0.500 0.190 0.000 srgb} bind def
/col25 {0.630 0.250 0.000 srgb} bind def
/col26 {0.750 0.380 0.000 srgb} bind def
/col27 {1.000 0.500 0.500 srgb} bind def
/col28 {1.000 0.630 0.630 srgb} bind def
/col29 {1.000 0.750 0.750 srgb} bind def
/col30 {1.000 0.880 0.880 srgb} bind def
/col31 {1.000 0.840 0.000 srgb} bind def

end

/cp {closepath} bind def
/ef {eofill} bind def
/gr {grestore} bind def
/gs {gsave} bind def
/sa {save} bind def
/rs {restore} bind def
/l {lineto} bind def
/m {moveto} bind def
/rm {rmoveto} bind def
/n {newpath} bind def
/s {stroke} bind def
/sh {show} bind def
/slc {setlinecap} bind def
/slj {setlinejoin} bind def
/slw {setlinewidth} bind def
/srgb {setrgbcolor} bind def
/rot {rotate} bind def
/sc {scale} bind def
/sd {setdash} bind def
/ff {findfont} bind def
/sf {setfont} bind def
/scf {scalefont} bind def
/sw {stringwidth} bind def
/tr {translate} bind def
/tnt {dup dup currentrgbcolor
  4 -2 roll dup 1 exch sub 3 -1 roll mul add
  4 -2 roll dup 1 exch sub 3 -1 roll mul add
  4 -2 roll dup 1 exch sub 3 -1 roll mul add srgb}
  bind def
/shd {dup dup currentrgbcolor 4 -2 roll mul 4 -2 roll mul
  4 -2 roll mul srgb} bind def
 /DrawEllipse {
	/endangle exch def
	/startangle exch def
	/yrad exch def
	/xrad exch def
	/y exch def
	/x exch def
	/savematrix mtrx currentmatrix def
	x y tr xrad yrad sc 0 0 1 startangle endangle arc
	closepath
	savematrix setmatrix
	} def

/$F2psBegin {$F2psDict begin /$F2psEnteredState save def} def
/$F2psEnd {$F2psEnteredState restore end} def

/pageheader {
save
newpath 0 257 moveto 0 0 lineto 510 0 lineto 510 257 lineto closepath clip newpath
-70.6 326.9 translate
1 -1 scale
$F2psBegin
10 setmiterlimit
0 slj 0 slc
 0.06000 0.06000 sc
} bind def
/pagefooter {
$F2psEnd
restore
} bind def
%%EndProlog
pageheader
%
% Fig objects follow
%
% 
% here starts figure with depth 50
% Ellipse
30.000 slw
n 6322 1522 300 300 0 360 DrawEllipse gs col0 s gr

% Ellipse
n 6322 3022 300 300 0 360 DrawEllipse gs col0 s gr

% Ellipse
n 6322 4522 300 300 0 360 DrawEllipse gs col0 s gr

/Times-Roman ff 400.00 scf sf
6239 1643 m
gs 1 -1 sc (3) col0 sh gr
/Times-Roman ff 400.00 scf sf
6233 3150 m
gs 1 -1 sc (2) col0 sh gr
/Times-Roman ff 400.00 scf sf
6232 4649 m
gs 1 -1 sc (1) col0 sh gr
% Ellipse
n 9022 1522 300 300 0 360 DrawEllipse gs col0 s gr

% Ellipse
n 9022 3022 300 300 0 360 DrawEllipse gs col0 s gr

% Ellipse
n 9022 4522 300 300 0 360 DrawEllipse gs col0 s gr

/Times-Roman ff 400.00 scf sf
8939 1643 m
gs 1 -1 sc (3) col0 sh gr
/Times-Roman ff 400.00 scf sf
8933 3150 m
gs 1 -1 sc (2) col0 sh gr
/Times-Roman ff 400.00 scf sf
8932 4649 m
gs 1 -1 sc (1) col0 sh gr
% Ellipse
n 3600 4500 300 300 0 360 DrawEllipse gs col0 s gr

/Times-Roman ff 400.00 scf sf
3510 4627 m
gs 1 -1 sc (1) col0 sh gr
% Ellipse
n 3600 1500 300 300 0 360 DrawEllipse gs col0 s gr

% Ellipse
n 3600 3000 300 300 0 360 DrawEllipse gs col0 s gr

% Ellipse
n 1500 3000 300 300 0 360 DrawEllipse gs col0 s gr

% Polyline
0 slj
0 slc
n 1650 2775 m
 3300 1575 l gs col0 s gr 
% Polyline
n 1800 3000 m
 3300 3000 l gs col0 s gr 
% Polyline
n 1650 3225 m
 3300 4350 l gs col0 s gr 
% Polyline
n 6600 1650 m
 8850 2775 l gs col0 s gr 
% Polyline
n 6600 2850 m
 8850 1725 l gs col0 s gr 
% Polyline
n 6600 3150 m
 8775 4350 l gs col0 s gr 
% Polyline
n 6600 4350 m
 8850 3225 l gs col0 s gr 
% Polyline
n 6600 1500 m
 8700 1500 l gs col0 s gr 
% Polyline
n 6600 3000 m
 8700 3000 l gs col0 s gr 
% Polyline
n 6600 4500 m
 8700 4500 l gs col0 s gr 
% Polyline
n 3900 1500 m
 6000 1500 l gs col0 s gr 
% Polyline
n 3825 1650 m
 6075 2850 l gs col0 s gr 
% Polyline
n 3825 2850 m
 6075 1725 l gs col0 s gr 
% Polyline
n 3900 3000 m
 6075 3000 l gs col0 s gr 
% Polyline
n 3825 3150 m
 6075 4350 l gs col0 s gr 
% Polyline
n 3825 4350 m
 6075 3225 l gs col0 s gr 
% Polyline
n 3900 4500 m
 6000 4500 l gs col0 s gr 
% Polyline
n 3750 4275 m
 6150 1800 l gs col0 s gr 
% Polyline
n 6525 4275 m
 8925 1800 l gs col0 s gr 
/Times-Roman ff 400.00 scf sf
3517 1621 m
gs 1 -1 sc (3) col0 sh gr
/Times-Roman ff 400.00 scf sf
3511 3128 m
gs 1 -1 sc (2) col0 sh gr
/Times-Roman ff 400.00 scf sf
1410 3127 m
gs 1 -1 sc (0) col0 sh gr
/Times-Roman ff 400.00 scf sf
3000 5325 m
gs 1 -1 sc (Day 1) col0 sh gr
/Times-Roman ff 400.00 scf sf
5775 5325 m
gs 1 -1 sc (Day 2) col0 sh gr
/Times-Roman ff 400.00 scf sf
8625 5325 m
gs 1 -1 sc (Day 3) col0 sh gr
% here ends figure;
pagefooter
showpage
%%Trailer
%EOF
