%!PS-Adobe-3.0 EPSF-3.0
%%Title: stochastic_states.fig
%%Creator: fig2dev Version 3.2.8b
%%CreationDate: 2021-11-19 11:23:32
%%BoundingBox: 0 0 347 514
%%Magnification: 1.0000
%%EndComments
%%BeginProlog
/$F2psDict 200 dict def
$F2psDict begin
$F2psDict /mtrx matrix put
/col-1 {0 setgray} bind def
/col0 {0.000 0.000 0.000 srgb} bind def
/col7 {1.000 1.000 1.000 srgb} bind def

end

/cp {closepath} bind def
/ef {eofill} bind def
/gr {grestore} bind def
/gs {gsave} bind def
/sa {save} bind def
/rs {restore} bind def
/l {lineto} bind def
/rl {rlineto} bind def
/m {moveto} bind def
/rm {rmoveto} bind def
/n {newpath} bind def
/s {stroke} bind def
/sh {show} bind def
/slc {setlinecap} bind def
/slj {setlinejoin} bind def
/slw {setlinewidth} bind def
/srgb {setrgbcolor} bind def
/rot {rotate} bind def
/sc {scale} bind def
/sd {setdash} bind def
/ff {findfont} bind def
/sf {setfont} bind def
/scf {scalefont} bind def
/sw {stringwidth} bind def
/tr {translate} bind def
/tnt {dup dup currentrgbcolor
  4 -2 roll dup 1 exch sub 3 -1 roll mul add
  4 -2 roll dup 1 exch sub 3 -1 roll mul add
  4 -2 roll dup 1 exch sub 3 -1 roll mul add srgb}
  bind def
/shd {dup dup currentrgbcolor 4 -2 roll mul 4 -2 roll mul
  4 -2 roll mul srgb} bind def
/xfig_image {image Data flushfile} def
/reencdict 12 dict def /ReEncode { reencdict begin
/newcodesandnames exch def /newfontname exch def /basefontname exch def
/basefontdict basefontname findfont def /newfont basefontdict maxlength dict def
basefontdict { exch dup /FID ne { dup /Encoding eq
{ exch dup length array copy newfont 3 1 roll put }
{ exch newfont 3 1 roll put } ifelse } { pop pop } ifelse } forall
newfont /FontName newfontname put newcodesandnames aload pop
128 1 255 { newfont /Encoding get exch /.notdef put } for
newcodesandnames length 2 idiv { newfont /Encoding get 3 1 roll put } repeat
newfontname newfont definefont pop end } def
/isovec [
8#055 /minus 8#200 /grave 8#201 /acute 8#202 /circumflex 8#203 /tilde
8#204 /macron 8#205 /breve 8#206 /dotaccent 8#207 /dieresis
8#210 /ring 8#211 /cedilla 8#212 /hungarumlaut 8#213 /ogonek 8#214 /caron
8#220 /dotlessi 8#230 /oe 8#231 /OE
8#240 /space 8#241 /exclamdown 8#242 /cent 8#243 /sterling
8#244 /currency 8#245 /yen 8#246 /brokenbar 8#247 /section 8#250 /dieresis
8#251 /copyright 8#252 /ordfeminine 8#253 /guillemotleft 8#254 /logicalnot
8#255 /hyphen 8#256 /registered 8#257 /macron 8#260 /degree 8#261 /plusminus
8#262 /twosuperior 8#263 /threesuperior 8#264 /acute 8#265 /mu 8#266 /paragraph
8#267 /periodcentered 8#270 /cedilla 8#271 /onesuperior 8#272 /ordmasculine
8#273 /guillemotright 8#274 /onequarter 8#275 /onehalf
8#276 /threequarters 8#277 /questiondown 8#300 /Agrave 8#301 /Aacute
8#302 /Acircumflex 8#303 /Atilde 8#304 /Adieresis 8#305 /Aring
8#306 /AE 8#307 /Ccedilla 8#310 /Egrave 8#311 /Eacute
8#312 /Ecircumflex 8#313 /Edieresis 8#314 /Igrave 8#315 /Iacute
8#316 /Icircumflex 8#317 /Idieresis 8#320 /Eth 8#321 /Ntilde 8#322 /Ograve
8#323 /Oacute 8#324 /Ocircumflex 8#325 /Otilde 8#326 /Odieresis 8#327 /multiply
8#330 /Oslash 8#331 /Ugrave 8#332 /Uacute 8#333 /Ucircumflex
8#334 /Udieresis 8#335 /Yacute 8#336 /Thorn 8#337 /germandbls 8#340 /agrave
8#341 /aacute 8#342 /acircumflex 8#343 /atilde 8#344 /adieresis 8#345 /aring
8#346 /ae 8#347 /ccedilla 8#350 /egrave 8#351 /eacute
8#352 /ecircumflex 8#353 /edieresis 8#354 /igrave 8#355 /iacute
8#356 /icircumflex 8#357 /idieresis 8#360 /eth 8#361 /ntilde 8#362 /ograve
8#363 /oacute 8#364 /ocircumflex 8#365 /otilde 8#366 /odieresis 8#367 /divide
8#370 /oslash 8#371 /ugrave 8#372 /uacute 8#373 /ucircumflex
8#374 /udieresis 8#375 /yacute 8#376 /thorn 8#377 /ydieresis] def
/Helvetica /Helvetica-iso isovec ReEncode
 /DrawEllipse {
	/endangle exch def
	/startangle exch def
	/yrad exch def
	/xrad exch def
	/y exch def
	/x exch def
	/savematrix mtrx currentmatrix def
	x y tr xrad yrad sc 0 0 1 startangle endangle arc
	closepath
	savematrix setmatrix
	} def

/$F2psBegin {$F2psDict begin /$F2psEnteredState save def} def
/$F2psEnd {$F2psEnteredState restore end} def

/pageheader {
sa
n 0 514 m 0 0 l 347 0 l 347 514 l cp clip
-110.0 258.5 tr
1 -1 sc
$F2psBegin
10 setmiterlimit
0 slj 0 slc
 0.06299 0.06299 sc
} bind def
/pagefooter {
$F2psEnd
restore
} bind def
%%EndProlog
pageheader
%
% Fig objects follow
%
% 
% here starts figure with depth 50
% Ellipse
60.000 slw
0 slc
n 4500 3600 425 425 0 360 DrawEllipse gs col0 s gr
% Ellipse
n 4481 1375 425 425 0 360 DrawEllipse gs col0 s gr
% Ellipse
n 4477 -860 425 425 0 360 DrawEllipse gs col0 s gr
% Polyline
0 slj
n 1800 3150 m 2700 3150 l 2700 4050 l 1800 4050 l
 cp gs col0 s gr % Polyline
n 2700 3600 m
 4050 3600 l gs col0 s gr % Polyline
n 4950 3600 m
 6300 3600 l gs col0 s gr % Polyline
n 4770 3240 m
 6300 1800 l gs col0 s gr % Polyline
n 1800 900 m 2700 900 l 2700 1800 l 1800 1800 l
 cp gs col0 s gr % Polyline
n 2700 1350 m
 4050 1350 l gs col0 s gr % Polyline
n 2700 1620 m
 4214 3313 l gs col0 s gr % Polyline
n 4918 1350 m
 6300 1350 l gs col0 s gr % Polyline
n 4765 1074 m
 6300 -450 l gs col0 s gr % Polyline
n 1800 -1350 m 2700 -1350 l 2700 -450 l 1800 -450 l
 cp gs col0 s gr % Polyline
n 2700 -720 m
 4320 3240 l gs col0 s gr % Polyline
n 2700 -900 m
 4050 -900 l gs col0 s gr % Polyline
n 4900 -900 m
 6300 -900 l gs col0 s gr % Polyline
n 4707 -1232 m
 6300 -2700 l gs col0 s gr % Polyline
n 6300 3150 m 7200 3150 l 7200 4050 l 6300 4050 l
 cp gs col0 s gr % Polyline
n 6300 900 m 7200 900 l 7200 1800 l 6300 1800 l
 cp gs col0 s gr % Polyline
n 6300 -1350 m 7200 -1350 l 7200 -450 l 6300 -450 l
 cp gs col0 s gr % Polyline
n 6300 -3600 m 7200 -3600 l 7200 -2700 l 6300 -2700 l
 cp gs col0 s gr /Helvetica-iso ff 476.25 scf sf
2160 3060 m
gs 1 -1 sc (0) col0 sh gr
/Helvetica-iso ff 476.25 scf sf
2070 810 m
gs 1 -1 sc (1) col0 sh gr
/Helvetica-iso ff 476.25 scf sf
2070 -1440 m
gs 1 -1 sc (2) col0 sh gr
/Helvetica-iso ff 238.13 scf sf
3060 -1080 m
gs 1 -1 sc (keep) col0 sh gr
/Helvetica-iso ff 238.13 scf sf
2160 270 m
gs 1 -1 sc (replace) col0 sh gr
/Helvetica-iso ff 238.13 scf sf
2880 1260 m
gs 1 -1 sc (keep) col0 sh gr
/Helvetica-iso ff 238.13 scf sf
2970 3510 m
gs 1 -1 sc (keep) col0 sh gr
/Helvetica-iso ff 238.13 scf sf
2250 2340 m
gs 1 -1 sc (replace) col0 sh gr
/Helvetica-iso ff 476.25 scf sf
6615 3060 m
gs 1 -1 sc (0) col0 sh gr
/Helvetica-iso ff 476.25 scf sf
6570 810 m
gs 1 -1 sc (1) col0 sh gr
/Helvetica-iso ff 476.25 scf sf
6525 -1440 m
gs 1 -1 sc (2) col0 sh gr
/Helvetica-iso ff 476.25 scf sf
6570 -3690 m
gs 1 -1 sc (3) col0 sh gr
/Helvetica-iso ff 317.50 scf sf
4635 -2070 m
gs 1 -1 sc (1-b) col0 sh gr
/Helvetica-iso ff 158.75 scf sf
5085 -1935 m
gs 1 -1 sc (2) col0 sh gr
/Helvetica-iso ff 158.75 scf sf
5400 -450 m
gs 1 -1 sc (2) col0 sh gr
/Helvetica-iso ff 158.75 scf sf
5220 405 m
gs 1 -1 sc (1) col0 sh gr
/Helvetica-iso ff 317.50 scf sf
5355 1620 m
gs 1 -1 sc (b) col0 sh gr
/Helvetica-iso ff 158.75 scf sf
5490 1755 m
gs 1 -1 sc (1) col0 sh gr
/Helvetica-iso ff 158.75 scf sf
5310 2565 m
gs 1 -1 sc (0) col0 sh gr
/Helvetica-iso ff 158.75 scf sf
5535 4005 m
gs 1 -1 sc (0) col0 sh gr
/Helvetica-iso ff 317.50 scf sf
5400 3870 m
gs 1 -1 sc (b) col0 sh gr
/Helvetica-iso ff 317.50 scf sf
4860 2430 m
gs 1 -1 sc (1-b) col0 sh gr
/Helvetica-iso ff 317.50 scf sf
4770 270 m
gs 1 -1 sc (1-b) col0 sh gr
/Helvetica-iso ff 317.50 scf sf
5265 -585 m
gs 1 -1 sc (b) col0 sh gr
% here ends figure;
pagefooter
showpage
%%Trailer
%EOF
